,call_index,sentiments
0,6081bdea52c838000aaa53d3,PNNNNPNPNPPENNNNNEPNNE
1,6081c27bde933a000a4384b0,PENNNNNEENNPNPEPNPPNNNNNNNNNNN
2,6081c54dd12abf000ab3c6f5,NNPNNNPNNNPPNNN
3,6081c666d7a1f7001cecce98,NNNNNPP
4,6081d8576eb5530043e3401f,NNNNPNNNNNNNNNNNNNNNNNNPPNNNNNNNNNENNNNNNENNNNEENN
5,6081d8fb0ef716000a2ef933,NNNNENNNPNEEENNNNNNNNNNNNNNNNNNPNE
6,6081dc0ae89167001d029a2c,NPNNENP
7,6081dd5e52c838000aaa57ce,NNNNNENNNNNNNNPE
8,6081e0f9d7a1f7000aecd142,NENNNNNNNNNNNNNENENNNEPNNNNEENNEPN
9,6081e325dd732d0032e68c42,NNNPNNNNNNNNNNNNNNNPENNNNNNENNNNNNNNNNN
10,6081ec18b135ba0036ebe195,NNNEPNNNNPNNPNNEPNNNENNNPNENNPE
11,6081eec3d12abf001cb3ccfa,NNPNNNNNPNNNNNNEENNNNEPNENPENNENNNNNENNNNNNNNNNNNNPNNNNNNNNNNNNNNNNPPNPNNENNE
12,6081f4330ef716000a2efc59,ENNNNNNNNNNNNNNNNNNNNNNNNNNENNNNNNNNNNNNNNNNNNNNNNNNNPPNNNNNNNNNNNNNNPNNNPPENNNNPNPEENNEENNNNNNNNNNNNNNNNNPNNNNNNNPPPNENNNNNNN
13,6082250d11454000323b188a,NNNEEEENNNNNENNNNNNNNNNNEENNNNNNNNNNPNNNPNNENNENNENNNNNENNNNNNNNENNENNNENNNNNNNNPPNPNNNNNNNNNENNNNNPNNENNNNNNNNNNNNNPNNENNNNNNNNNNNENNNNNNNENNPPPPNNNNNNEENNN
14,6082258b52c8380039aa5cca,NNNENNNNNNNNNNNNPNENNNNNNNNNNPNPNNNNNNNNNENNNNNNNPPNNNNNNNNNNNNNNNNNNPNNNNNNNNNNE
15,6082f127b135ba001cebee68,PNNNPNNNEENNNNNNNPNEPPPENENNNNNNNNNENE
16,6082f862d7a1f7002eece135,NNNPPNNNNPPNNNNNENNNNNNNNNN
17,6082fea7b135ba001cebf05b,NNNNNNNNNNNNNNPNNPNNNNNNNNNNPNNNPPPNEEEE
18,60830085dd732d0032e69b05,NNNNNNPE
19,608309bdd12abf0020b3dbae,NPNEEPPNNN
20,608310534ca760000a3d4852,NENENNNNENNENENPNPNNNNENEN
21,6083120edc6a400032d74c60,NNNNNENNPNNNNNNNNNNNNN
22,608312df4ca76000323d4904,NPENNNPENNN
23,60831bf1df5c84000aa2cd65,ENNNNNNNNEEEENPENPNNNNNNNNNNNNNEENPPPPNEPPPPNNNNNEEEENNNNNNNNNNNNPNNENENEENNNNNENNNPNNNENPPPNNNNNNNNNENNNNNNNNNPPPNNPNENPPNENENNNNPNNNNNNNNNPNPNNNNNNENNNNNNNNNENNNNPNNNNNPNNNPNNNNNNEENNNNNNPPP
24,60832421b135ba002eebf2a8,NNNNNNENNNNNNEENNPNNNNNNNNN
25,608325bcf950ba000a09e074,PNN
26,60832728dd732d001ce6a024,NNEPN
27,6083273fb54043000a3266bc,NNNNNNNNNNNNNNNNNNNNNNNNNP
28,60833638d13a90000a12f169,NNENNNNNNNNNNENPNNN
29,608339cef950ba003209e3b0,NNNNNNNNENNNNNNNNPPNEENNNNNN
30,608341fdbd5f53001cf4e734,EENNNNNNNNNPNPE
31,6083482ad7a1f7002eecebc0,NNNNNNPNNNNNNNNPNNNNNNNNNNNNNNNNNNNNN
32,60835455a4a27900156d3d49,NNNENENNNNNNNNNEENNNPNNPPPE
33,608356c411454000203b2d1f,NENNNNNNNENNNNNNNNPPENNPP
34,60836a06865bcf0040e16131,PPPNPENP
35,60836d1bdc6a400018d75106,EPNNNNNPNPNNNPNPENNNNEEEN
36,60838b1e765ad60040c1505a,EEENNNNNPNPNNNNNNNNPNNNEPNNNNNPPPPPN
37,6084255bbd5f53000af4ea8c,NNPNNNNNNNNPPEPNPNPE
38,608428b47d404a002e2dd10e,PPNNNNNPNNNNNNNN
39,6084406cde933a001c43a55b,NNNNENNP
40,60845110506b81001ce207c2,NNNNEEPNNNNNNENNNNNNNNNNNNNNNEN
41,60845c527480bd0036f543b5,NNENNEENNP
42,6084647fd7a1f7001cecf0c8,NNNNNNPNNNNNEPPNNNNNNNNNNNNNNNE
43,6084799ba4a279002e6d42d5,NNNNE
44,6084947777357600419a630e,NNNNNNENNNNNENNENNNNNNNNNNENNNEENPPNNNNNNNNNENNNNNN
45,6084a77967da03001f645ef8,ENNNNNNNNNENNNPNP
46,6084b726df5c84001ca2ddca,NPNNNNNNNENNNNE
47,60859fc9765ad6001cc159c8,NNEENNNNNNNNNNENEPPPNPNNPNNENNNNNENNNNN
48,6085ab1be89167002a02c1ca,ENNNEENNNNNNPPENNNNNNENNNNNNNNNNNNNNNNNENNNNNNNENNNNNNNNNNNNENENNNNNNNNNPPPNNNPNNNNNNNNNNENPNENPPNNPNNNPEN
49,6085d82ca4a279000a6d457e,NNENNPNNNNNNNNNEPNNPPNNNNNNENNNNNNNNNNNENN
50,6085ff097480bd000af5483b,NNNNNNNNNNNEENENNEENNNNNNNNENNNNNNNNNNNNEENNNNNNNNNNNNNNNNNNNEENNNNNNENNNNNNNNNNENNNNNEEENNENNNNNNENNENENEENNNNEEEENNNNNNNNNNNNNNNNNNNNEEENNNNNNENNNNNNNNNNNNNEEENNNPNNNNNNNNNNNNNNENNNENNNNNNPPNNNNNNPNNNPNNPENPN
51,6086157d765ad6001cc15c8a,NNNNNNNNENNNEENNNNENPNENNNNNPPEENNNNNNNENNNNNNNN
52,6086e3a2d13a90003613087c,NNNNNNNNNNNNPNNNPNNNNNNP
53,6086e44a0ef71600262f2875,NNNPPP
54,6086e7e44151cb000a366bcb,NNPENPEPPNN
55,6086e7fdd7a1f7001ced03cf,ENEENNNNNNNN
56,6086ed6a506b81000ae2181f,PENNNNEPNNNNP
57,6086ed7ab135ba000aec1207,NNPPPPEE
58,6086f0697d404a002e2de5ca,PPN
59,6086f098004cca002a1250b7,NNNNPNNENN
60,6086f2884151cb0040366adb,EEEEEEENNNNNNNNNNNNNNENNNNNNNNNNNNNNNNPE
61,6086f2c4114540000a3b4153,NNNNENPENNNN
62,6086f2d552c8380039aa8a5b,NNNNNNENNNPPNNN
63,6086f3f4765ad6000ac162f2,NNNPNNNNNENNPENPPNPNNNN
64,6086f5547480bd001cf55d14,NNNNNPPNNEN
65,6086f5e8d12abf000ab3fa6e,NNPPNEN
66,6086f6da114540000a3b41c6,NNNPNNPENNN
67,6086f847765ad6002ec16724,NEENNNNNNNNNPNNPNENNNPPNE
68,6086fa00506b810033e21e0c,NNNNNNNEENNNNNNNNENPNNNNNEPNPPNNNNNNPP
69,6086fa746eb553000ae37248,NNNNNNNNNNPENNNNNNNNN
70,6086fd34bd5f53000af50243,NNNPNPENNNN
71,6086fd4f865bcf0040e17b06,NNNNNPENNN
72,6086feb6765ad6002ec167f1,NNNNPNNNNNN
73,60870211114540000a3b432f,ENNPNNPNNPNNPNNPPPENEE
74,6087029b773576002f9a7531,NNNNNPENENNNNNENN
75,608705ff4ca76000323d6ded,PNNNNNE
76,608707bcb54043000a3287c9,NNNNNNPNNNNNNNNPNNNPNPNEN
77,60870922dd732d001ce6c0c4,NNNNNNNNNNNNNPE
78,6087094c67da03000a647895,NNNNNNNNNNNNNNPPNNNNNNNNNNNNNNNNNN
79,608714624151cb002e366d23,ENEPNNPENNNNNNNNPPPENNNNPNNEEE
80,60871824b54043000a328a22,PN
81,60871b49d7a1f7002eed0cba,NN
82,60871c80bd5f53000af5069e,NPNNNNNNNPENNNNNN
83,60871dc9d12abf001cb40439,NNNNNNNNNNNNENN
84,60872887dc6a40000ad7707d,NNNNNPNNNNNNNENP
85,60872aad004cca000a12507d,NNNPNNNNNENNNNNNPPENNNNNN
86,60872f88b135ba0036ec1abb,PNNNNNNNNNNNNNNNNENNNNPNPENNNEPNEEENPNPNNPPNEN
87,60873aed7480bd001cf566b8,EEEENEPENNNNNNNPPNN
88,60874053d12abf0020b40968,NNPNNNPNPNNNNNENENENNNNNPNNNNPNNNNEPNEENNPPPNPNNNNNNNNENPNEEPENENNNN
89,6087410d3122ca000a85fdcb,NNNNNNPEENN
90,60874b29773576002f9a7d1d,PPNPENNNN
91,60874b93d7a1f70040ed0a0e,NNNNNNNNNNNNNNNNNNENNPNPNNPNPEEEEPNE
92,6087519f506b81002ee22760,NNNPNNNNNNNNNNNNPNNNPNNPPNNNNNEENN
93,60875468004cca004c1257e9,NNNNNNNEENPPENENNNNNNE
94,6087645a77357600419a7f36,NNEENEEENNNENPPNNNNEEN
95,608835c9e89167003402dce1,EN
96,6088372b67da030017648735,NNENNNNNENPNNNNNPNNNNPNPPNENN
97,6088384f6eb553001de386c5,NPPPNNNNNNNNPNNNNP
98,608838d74151cb000a36838d,NNNNNNNNPENN
99,608839693122ca0017860ad4,ENNNNNPNEN
100,60883e99f950ba00320a1525,NNNNNNNNNPENNN
101,608841ac67da0300176488b2,NNNNPEPNNNPNPPNNNNENE
102,608841b8d7a1f7002eed1e25,PPNNN
103,6088423f0b3cbc001c696f12,NPNNEPNPEENNNNNNNNNNNPNPPENE
104,608842fe114540000a3b56e5,NNPNNNPPNNN
105,608843660b3cbc0021696dbb,NPENNN
106,60884472a4a279002e6d6bfd,EN
107,6088469752c838001caaa7b8,EENN
108,6088488a0ef71600262f4147,NNNPN
109,608849f5b54043003d329e68,EENNNNNNNNNNNNNENENENNNNNNNNENPNENENNNNNENNNEEPENPEPNEEENNNNNNNPEE
110,60884b8953b3c400363eda08,NENNNNNNNPPPNNNNNNNNNEPNN
111,60884cec6eb5530030e3857d,NNNNNNNPNNNPNNNNNPENNN
112,60885155de933a001c43d3f1,NNNENNNPNNNNNPPPNNNE
113,608852413122ca000a860c30,EPNN
114,608858c4de933a002643cab6,NNNNNNNNNPNNNN
115,60885bca67da030017648c4b,NPNNNPNNPPNPENNE
116,60885d026eb553000ae38af7,NNPPNN
117,60885d34773576001d9a978b,NNNNNNNENPPN
118,6088634d4ca76000323d8815,NNNNNNNNNENNNEENNP
119,6088657ab135ba001cec310e,ENNNNNNNNPNNNPPPNNNNN
120,60886667d13a90000a132a37,NNNNNNPE
121,608866cc77357600419a8f1f,NNEENEEEEN
122,608869dde89167003402e3ff,NNNPENNNNNNNNNPPPNNPNE
123,60886a0cd13a9000471327bf,NEEEENNENNNNNPPNNNNNE
124,60886dc2773576000b9a91c2,NNNNNNNNNENENNNNPNN
125,60886dc8765ad6000ac17e70,NNNNPNPE
126,6088701bd7a1f7001ced23be,NENNNNNNNNNNNNNNPNPN
127,608877797d404a000a2e05a7,PNPEENNNPNNNN
128,608878870b3cbc0040696cd2,NNPNNNNNNNNNPPNNNNNNNNNNNNNE
129,60887e37d12abf0020b41ed9,NEEENNNNNENENPN
130,60887ed4114540001c3b5f4d,NNNNNNNPNPNNNNPENN
131,6088813653b3c400203ede5b,ENNNNNNPN
132,608882f03122ca000a861281,PNNNNNNNNNNNPPNNNNNN
133,60888ea1bd5f530020f524fd,NNNNPENNEENEN
134,60888f9052c8380039aaab1c,PNNEN
135,60889600506b81000ae23744,NNPNNN
136,60889b30d12abf0020b42164,NNNNNNNNNPNN
137,6088b320df5c84001ca31262,NNNNNENNNNNNENNPNNNNNNNNNENNENNNNENNENPNNPPNNNNNENNN
138,60898909114540001c3b6b49,PN
139,60898a713122ca0017862080,NENPNNNNNENNEENPNENEPN
140,6089952fa4a279002e6d80f3,NNNNENNPNNNNNEEEENNNNNENNENENNENNEENNNNNENNNNNPNNNNNNNNNPNNNNNPNNNNNNNENNNNNNNNEENNNNN
141,6089954a3122ca002086273f,NNNNNPPPNP
142,608996c27480bd001cf58c98,NNEPNNNNPNNPENNEENNNPNNNP
143,608996f4df5c84002aa31657,NPPNPN
144,60899841d13a90002013388b,ENNNEPNNENENPN
145,60899a61114540001c3b6d91,NNNNENNENNNNN
146,60899acfd13a90004713397e,NNENNNPNNPPNNNN
147,60899dafe89167000b02f80b,NNNNNNPN
148,60899f027d404a000a2e1665,NNNNNENNNNNENNENEENNNNNNNNNNNNNNNNNNNNNNENNNNNNNNNNNNNENNPNNNNNENENNNNNENNNNNNNNNNNNNNNNENNNENNNNNNEENNNENNNNNENNNNNNEENNNNEPNENNENNNNNNPNNNNNNNNEENNNPE
149,60899f897d404a002e2e1224,NPNPPPNPNPPENNEPE
150,6089a0b74151cb002e369568,NNNNNNNNPEENNNNNN
151,6089a2fb4ca760000a3d949d,NNNNNPENNNNNPNEPNNNNNNNNNNNNNNNNNN
152,6089a6647480bd0036f58561,NNNNNNNPNNPNNNENNNNNNNNNNNPEENNNN
153,6089a8254151cb0040369c35,NNNNNNNNNNNNNPEPNEEN
154,6089a94dbd5f530020f53534,EEEEEENEENENNEEENNNEEEEEEENNNNNNENENNNNPEN
155,6089ab937480bd0036f58608,NNN
156,6089ac420ef716000a2f59bf,ENNNNNNENNENENNE
157,6089aca653b3c400473ef12a,NN
158,6089add7b54043000a32b64a,ENNENNNNNPPNNNNNNNNNNNNNNNPNPEPEENNNNP
159,6089aeccd7a1f70040ed2f24,NNNNNNNPNNNPENNNNNPPPNNNNNNNNPPPNEENNENEN
160,6089bbcd53b3c400203ef08e,NNNNNNNNNNP
161,6089be84df5c84001ca323d0,NPN
162,6089c1010ef71600342f64f3,NNNNEPNNNPPNEEPP
163,6089c1fadc6a40000ad79ba8,PNENNEEEENN
164,6089c5aabd5f530020f5395f,ENENNNNEENPENN
165,6089c95ede933a004043efd2,PEENNNPNNNNNENNNNNNNNNNNNNNPNNNNNNENENNNNNEEPNNNPNENPPPNNNNNNNPNNENNNENNNNNNNN
166,6089ca620b3cbc000a69872f,NEPN
167,6089cacbd7a1f70040ed32f9,NNPENEN
168,6089d0a5d13a90000a1344c7,NPPNPPENNN
169,6089d2d47d404a002e2e1872,NNPEENNNE
170,6089d5d8f950ba00200a31e6,NNNNNNNEPENPNENNNNENNNNPN
171,6089def5773576001d9ab64b,N
172,6089e200de933a001c43f2af,NEPNNNNNNPNPNNNNPNNPPNPPENEPNN
173,6089ecafd12abf001cb43628,NNNNNN
174,6089eda6d7a1f7001ced3ea4,NNNNNNNNNNNNPNNPNNP
175,6089ee1ee89167000b0300ae,NNNNNNPNEPNNNNNPNNNPPNEPNNNNNPENNNNNNNNNNNNNPPNENEPEENNEN
176,6089f1a64151cb004036a4a9,EENNEENENNEENNNNNNNENNPPNNENENNNPEPNPNPPNNNNNNEENENNEPEEEPPPNNNNNNENNENNNNEPN
177,6089f3a6e89167001d0302d5,NPNNNPNNNNNP
178,6089fa1a67da03000a64af4e,EENENNNNNENENNPNENNNNNNNNNNNNNNEPNNNNNENPE
179,6089ff6ed13a90000a1347a3,NNNNNNNPNNNNNPE
180,609020f33a391b00326f458c,NENNNENEEN
181,609022ee30c4af00200e6eec,NPENNNPN
182,6090251ba763b8002e26eb97,NNNN
183,60902717292fc6004839944d,NNN
184,609028bdedf065001d5d62b1,NN
185,6090294a3a391b00186f426a,NNNN
186,60902b0b292fc60036399558,NN
187,60903345515f4b001c47fb50,N
188,6090353d46b35d001c632fea,NPENENNNNNENNPNNNNPPPNNEN
189,6090378edf759e001cd8baee,NNENNNNNP
190,609039cc424dc80022685a67,NEENNNNPP
191,60903c78a35ed50032214b6f,NNNNNNPENNNN
192,60905173ac84c9001cea4f82,NNNNNNNNNNNNNNNNNNNEPNPE
193,6090539bd74594001caae9c2,NNNPNNNNENNPEPPNNNNNNNNNPPPNNNNNN
194,6090546dac84c90034ea50d1,ENNNNNNNNNNNPPE
195,60905800a763b8001c26f635,NNPNNNNNNEEENPNPPEEEEENNPN
196,6090591fa763b8002e26f31f,NNNPPNN
197,609060afedf065001d5d6b18,EEEEENNNENNNENNNENNNENNNNNPE
198,60906185498e4e001c0202ea,NNNNNNENNPNNNNNNNNNNN
199,609067986b2dd300320a587e,NNNNNNNPNNNN
200,60907bcebbc1a4001cbdfad8,NNPNNPPNNNNNNNN
201,60907c3aa8b83d000a4b99ed,ENNEPNPPPNNNNNNENNNNNNNNNNNNNNNNENNPNNNNNPPPNNNNPNNENNNNNNNEENNNNENEPN
202,60916fbebeec28000a7abcd6,NENNNNNNPPNNPEENNNNNN
203,60917a190c47de000a5b65ce,NENNNPEENNNNN
204,60917f9275bd88002c7b2419,NNEN
205,609180e075bd8800367b23c2,NNNNPPNPPPPNNPNNNENEN
206,609190a519c2cf000aef8dd8,NNNNNNNNNNNPPP
207,6091962eb0fcfc000a630284,EENNEPNPNNNNNNPNNNNEN
208,6091965b7965d5002ed84dbb,PNENNNN
209,609199887965d5002ed84e33,NPPNNNNPP
210,60919c23019088000ab4a967,NNNNNPPEE
211,60919e5569ecac001c71697f,EPNNNN
212,60919f04e1e6dd000a5cb5f8,NPENNNN
213,6091a3e19ad8d00040640db3,PNN
214,6091a5860c47de002e5b6bbb,NNEEEENNN
215,6091b15d9b1366000a1645da,NNNNNNENN
216,6091c201beec28000a7ac911,EENNPPN
217,6091d24cf71fd7000a37854f,NPNPNNNNNNNNNNNNNNNNNPE
218,6092c100019088000ab4bb39,ENNNNNNNNNNNNPNNEENNNENNNNENNNNNNNNNNNNNNNNNNEPNENPNNNPNNNENNNNENNPPNNNNNNNENNPNNNNNPNENPNENNNNNNNNNNNPNNNENNNNNNNNPENENPENEPNNNNNNNPNNPPNPPENNNNNNNENNENNENNNNENNNENNNNNNNENNNNNNNNNNENNNNNNENNENNEENNEPNPNPPEPPNNNNNPNNPNP
219,6092df5381206e000a5fcec5,PNNNNNNNENNNNEEEENNPNNPNNNNPNNEENNNNNPNN
220,6092f1fb64ba3f003513ceab,NPNNNNNPNNNNNNNNPNNNPNPP
221,6092f5669ad8d0002e6424b8,PNEPNEPNNNNNNN
222,60931e45d50566001bfa5cc6,N
223,609322339ad8d00040642b2d,ENEENENNNNNNNNNNNNNNNNNPNENNNNNNNNNNNNENNENNNENNPNNNNEPNP
224,60932a20e5c4a0000ac9d5ef,NNNENNPNNENPNNNNNNNNNNNNNNPPE
225,6094130f5f4240002ea0ff1e,PN
226,60941cb9bd43ca000aefda97,NEENNNNNNNNNENNNENNEENPPE
227,60941f49d815e8004ffbd27f,NNNPPPNNNNN
228,60942024901b3d000a52bc13,NNEEENP
229,60942aca16f5b700270bd95b,NNNNNNP
230,6094384729aff7001ecca582,NNNNNNNNNNPNNNNNNPNNNNNNENNNNNPE
231,6094425601daa20040f84fd2,NNNNEENP
232,60945818751939002e16fc8f,N
233,609478da01daa2002ef855a3,NNNNNNNNNNPNPNNNPNNNNNPPNNNENNENENNNNENNEPPNNPEEEN
234,609567915f42400020a11f9b,NNPNNN
235,60956a3c349582000a323e97,NENNNNNNNNNNNNPNNNPNNNNNNNNNNNENEPNNNNNNNNNENPNNPENNNNNNPENPNNPPENNNNNPPNNPEPNNNNNNNNNNNNNNNNNNPNPPENNNNNNNENNNNNNNPPNPPNNPNNEPENNNNNNNNNENNNNN
236,6095732710ba30003f13c8c4,NNNNNNPP
237,609576a82faed6003b8a69f5,ENNPP
238,609579066c2e5300320436cd,NNPNNNNNNNNNP
239,609579b9ce5242001cd68dcb,PP
240,60958a44a16334000a3fd978,NPN
241,6095a0e8e8d95e002ec2f232,N
242,6095a443d815e8000afbfafa,NNNPENP
243,6095a48d243672001cb9f9f1,NNNNENNNNPNNNNNNNNNNNNPNNPNNNNNNPE
244,6095a626eec5c1000a292707,NN
245,6095aabf01c051002b3bd35d,NNNNNNENNNENNNNENNNPNNENPPN
246,6095ab79ca6301000ada4978,NNNNNNNNNNENNNNNNPPPENNNNNNN
247,6095b0bf884d660036bd543e,NNENNNNNEENNNNNNPNP
248,6095b211e8ab1b000a11d6e6,NNNPPPENNNNNPE
249,6095bbc110ba30001c13d811,NPNNNNNNNNNPNNNNNNNNNNNP
250,6095bc05e8d95e002ec2f5db,NNNNNNNENNNNNNPNP
251,6095bd1e7519390033171d34,NPNNNENNNNNEEENNNPNE
252,6095c2081d9f2c0037aae267,NNNENNNN
253,6095f5aa16f5b7001c0c047d,ENNENNNNENNNPNNNNNNEEN
254,60969eb9243672002eb9ffb1,NNNNNPPNNPPEENPNNNNENNNNNNN
255,6096adc5ce52420021d69b7b,NNENNNNNNNNNNNPNNNNNNNNNNNNNNNNNNEENNNNNNNNPNNNNNNNNPNNNPNNNNPNNNEPNNNENNNNNNPNNPNNNNNNNPNEPNNNNNNNNNNNNNNNNNNNNNPNPPNNNNNNENNNNNNNN
256,6096bfe420e4da00296f90b2,NPNPEN
257,6096c5dbe8d95e000ac2fda0,NNNPPNNNENNNNNEENNNNP
258,6096c84701daa2000af87ba7,NNNNNNNNNNNPPPENNNNNNNNNNNNNNNEENPPPNNNNNNNEEEENEENNNNNNN
259,60970186a1633400203fee16,NNNNNENPENNNNPPNNNN
260,6097fe20901b3d000a52f842,NNEEEEPNNENNEPPNP
261,6098168916f5b7000a0c1347,NENENNNNNENNEENNNNNNNNENNENENNNNNPNNENNENNNNNNNPNNNNNENPNPEPNNEPPNNN
262,6098250ee8ab1b000a11e981,NNPPPN
263,60995a07884d66000abd7990,NPNNNNNNNNNNPNNNPNEEPEPNNNNN
264,60995bd2e8ab1b004011faa0,NNNNNPNNNNNNNNPNNNNNPPNNNNNNNPNNP
265,60995d01884d66004cbd7c2e,NNNNNNNNNNNNNNNNNNNPNNNNNNNNNNPNNNPNPPN
266,609968e6751939000a17408e,EENNNNENPPNENNNNENNNNNNNPNPPN
267,609977e601daa2002ef89b0a,PNNNPENN
268,60997cec884d660020bd8099,NPPN
269,6099802834c01e0034d453ef,EPPP
270,6099876a4a5e55002ccfa6da,PNNPENNNNNNPN
271,60998a6310ba30001c14087d,N
272,60998d9e01daa2002ef8a004,NN
273,609993ea4a5e55000acfad4e,EPNNNPNNNPPENPEN
274,609994cd5f4240002ea15fe4,NNNNNENPEENNE
275,6099a08e884d66004cbd8aee,NNNNNNNN
276,6099b5854a5e55000acfb311,EN
277,6099b5f26c2e53000a04759d,NNNPNNN
278,6099bcb529aff7000acd036f,ENNPPNNNPPN
279,609c07622ba9f8002e81c57d,NNNNNNNNNNNNNNP
280,609c09943c601c001d119bb2,NNNNNNNNNNNNNNNNNNNNNPN
281,609c18380f5f27001c22bbb8,EENENPPPPPPPPPPPENENNNENNNNNNNNNNNNNNNENPNENNNNNNENPNNNNNNN
282,609c22732e79ed0040bbead8,NNNPPEN
283,609c229392285b00213c8aa7,NNNPNPNNNNNNNNPNNNNNNNPNPNPPENNNNNNNNNNNNNNNEN
284,609c40010156c60028c29b87,NPNNNNNNNNNP
285,609c523c2ba9f8000a81d45b,NNPNNNNNNNEE
286,609c610cefada3000ae92a78,NNPNEPNNNPNNPENPE
287,609d51682c0b4700339c64f5,NNNNENNNNNNNPE
288,609d5449d0488d001cb16a9d,NNNEEE
289,609d552929c6ed00343c1974,PNENNNNNPNNNNNNPNNNNPPPNNPNEENNPNPPEPNNNPPENNNNEPN
290,609d55b3ab2465000afc7669,NNNNN
291,609d5968266ffd00294c7d0f,NNNNNNNNNNNNPNNNNNNNN
292,609d6be4b99efd002ee776af,NNNNNNNN
293,609d6c8f2c4c1a00203ce7d4,NNNNNEENNNNNNNNNNNNNNNNNNNENNNNNENNNNNNNNPEPNNNPPNEENNNNNNNNPNENNENPEENNENNENNNNNNNPNEEP
294,609d6cc4d0488d002eb16faf,N
295,609d6e5ac1cacd002e127d79,NENNEENENNN
296,609d704c17eb86001b76d3ae,NNNNEPNNNNEENNNNNNNNNNNEN
297,609d7a0676d308004618e989,NENNNNNNNNNNPENPNPPPNN
298,609d7c3436b1eb000a8165d6,NPNNNNNNNNNNNPNPNNNNNNNNN
299,609d80aa197a10001c79724e,NPNNNN
300,609d815f2c4c1a00203ceb89,PN
301,609d8458a3b8e8001d1b692d,NPNNNN
302,609d86ec9596050040497594,NNNNNNPPNNNEEENNENNNNNNNNNNNN
303,609d87874f2fee002006a354,NNEN
304,609d8795c1cacd002e1281c1,NNPPNNNNNNNNNNNNNPPEN
305,609d8ca134b17f002e2f0e68,NP
306,609d8d4f266ffd00324c8567,EE
307,609d93aa2028fd002ef4e57e,NNNNNNNNNNNENNNNPNENEENEEEENNNNNNNEEEE
308,609da0e1b99efd002ee77ef5,NPPNENNNNNPNNNPNNNNNNNN
309,609da66d8cc61b002ec2d35c,NNNNNNNP
310,609dabf7c1cacd000a1284f3,NNNNNNNNNNNNPNNNNENN
311,609db1db2c4c1a000a3cf16b,NNNNNN
312,609ea0ab542ff5000afabc0e,NNNPENNN
313,609ea211175049002818c5f8,NNNNNNPNNNPE
314,609ea6e5266ffd00294c94f3,NNNNNNNNNPNPNPPNN
315,609ea97821bc91002e4a995d,PN
316,609eb20829c6ed000a3c32f9,ENNNNNENNNNNNNENNNNNNNNPE
317,609eb317c1cacd000a12920f,NNNNENNNNNNENNNNNNNENNNNNNNNNNPN
318,609eb6d6b99efd001ce78bf8,NENNNNNNNNNNNNNNPENNNNNNNNNNNPNNEEEEENEP
319,609eb9c476d308000a18ff17,NNEPP
320,609ebec9266ffd000a4c973d,NNENNNEEEENEENNNNNNNNPNNNNNNEPENNNNNENNNNNNPEEPNNNNNNNNEPPNENN
321,609ec6d54f2fee000a06b647,NNENNNNNNNNNNNNNNENNPEE
322,609ed012ff33cc000af916cc,EEENNNENNPNNPNNNNENNNNNNNENNNNNNNPNNNENNNNENNNNNNNNEEENNNENNNNNNNNNNNNNNNNNNNNENNNNNNNNNNENNNNNNNNNNNNNNNNNNNNNNNNNNNNNPNENNNNPPE
323,609ed13dd0488d000ab18835,NNNNENNNNNNPNNNNNNENN
324,609ee27d8cc61b002ec2e7df,NNENNNNNPNEENNNNPNNNNNNPNPNPNNP
325,609ee6ce8dce4e001cf1308c,NNNNNNNNNNNENNNNNNNNNNEPN
326,609eeb00ab24650023fc9834,PNNNPNNPPPENEPNNP
327,609f0a5dc1cacd0032129c47,EEEPE
328,609feee1266ffd00294ca33d,EEENNNNNNNNNNNNNNNNNNNNENNNNNNNNNNNNNNNNNNNNNPP
329,transcript10,EEENNNNNNNNEENENNNNP
330,transcript100,NPENNNN
331,transcript101,NNNNNNNNNNNNNNPE
332,transcript102,NPNNNNNNNNNP
333,transcript103,NNPPNNNNNNN
334,transcript104,ENNNNNNENNENNNNNNNNNENNNNNNNNNNNENPNNNNPPE
335,transcript105,NNNNNNNNNNPPPN
336,transcript106,NNNENPPE
337,transcript107,NENPPNPENNNENN
338,transcript108,NNNNNNNPNNNNNNNNNNPNNNNENP
339,transcript109,NNNNPNPNNNNNPPP
340,transcript11,NENPNNNPP
341,transcript110,NPNNNN
342,transcript111,NNNNNPE
343,transcript112,NPNNN
344,transcript113,NENNNNNNENENNNNNNNNENNPNEENNNNNPPPN
345,transcript114,NNNNNNNNNNPNPNPNNNPNN
346,transcript115,NNNNNNNEENNNNNNNNPNENNNNNNENNNNNPNNNE
347,transcript116,NNNPPENNNNPNNNNN
348,transcript117,EPNNEENNNNNNNNNNNNENNENNNENNE
349,transcript118,NEENNEENNNNNNPPPNENNPNNNNNN
350,transcript119,PNPNNNNNNP
351,transcript12,NNNN
352,transcript120,PNNNNNNNNNPNNNPNNNNNNNNNNP
353,transcript121,ENNNNPNNPE
354,transcript122,NNNNNNNNNNNENNNNNNNNNNPPP
355,transcript123,EPNEP
356,transcript124,NNNNNNNNNNNNNPNNNNNNNNNNNNNNNNNNNENNNNNNNEENNPENNENNNNNNNNENPNNNNNNNNPPPPPE
357,transcript125,PNN
358,transcript126,NNNNNNPPNNPNNN
359,transcript127,NNPENNNPNPPNEEENNNEEEEEP
360,transcript128,ENEPEPEPNNNNNNNNNNNENNEENNNENNNNNNNEPPNNNNNEPNNNENNNNNNENNENNENNNEEEEP
361,transcript129,NNPNNNPENNNNNENNPN
362,transcript13,PNNNEENENNNNPENNNNENNNNNNNN
363,transcript130,N
364,transcript131,NNPENNNEE
365,transcript132,NN
366,transcript133,NNNPNNNEENE
367,transcript134,NNPNNNNPNPN
368,transcript135,NNPNNNNNN
369,transcript136,NPEEEN
370,transcript137,NNEEEPNNPNNNNNNNNP
371,transcript138,NENNPENNNNNEEENNNP
372,transcript139,NNPNNNPPPNNNNN
373,transcript14,EEENNNNNENNNPNNNNNNNENNNNNNNNNPPP
374,transcript140,NNEPNEPPPNNN
375,transcript141,NNNNENNEENNEP
376,transcript142,NPPNNPNNNNENNPNNNNNNNPNNNPNNNP
377,transcript143,PEEN
378,transcript144,PEEN
379,transcript145,NNNNEPNNNNENNPPNPENP
380,transcript146,NNNENENNNNNNNNNNNNENNNNNPNNNNNNNNNNNNENNNNNENNNNNNNNNNNENNNNNNNNNPNNNPPPNPNNN
381,transcript147,NENNNENN
382,transcript148,NNNPENEE
383,transcript15,NPPPNNNNENNNEENP
384,transcript150,ENEENENNNENNNPNNNNNEEENNENENPNNENNENNEPNNNNNEEENNEENENEENNNPNNENNNNNNEEENNPPNNEENNNEENNNNNNNPNPN
385,transcript16,EPNNNNNNNPPNPPPPENNENPENNNNNPNNE
386,transcript17,NNNNNNNNNPPPNE
387,transcript18,NNNNNNN
388,transcript19,NN
389,transcript2,NNNNNENNEPPNPPPPNNNPPNNNNPNNNNNN
390,transcript20,NPNN
391,transcript21,NNEEEEENNNNNNPNN
392,transcript22,NNNENNPNNE
393,transcript24,NNNNNNENENNNNNNNNNNNNNENNNNENNNENNNNNEENNPNNNNNENNNNNNNNNNNNNNNNNNNNNNNNNNENPNP
394,transcript26,NNNNNENNNNEPNNNNNNNNE
395,transcript27,NPNN
396,transcript3,NPN
397,transcript30,NNNNEEPN
398,transcript31,ENEPNNNNNNNNNNNNNPPPNNNNNNEENE
399,transcript32,ENNEENNEENNNNNNENNNNNNNNP
400,transcript33,NNNNNNNNPEEENPNNNN
401,transcript34,NNNNNNNNNNNNPNNPNNNNPPNNNNENNEEEENNN
402,transcript35,NNNNE
403,transcript36,ENENENNPPNNNNNNNNNNNNNNNNNNP
404,transcript37,NNNNEEEENNPNNNNNNP
405,transcript38,NNNNNNPENNNNNNNNNNNNNNNNN
406,transcript39,NNNNN
407,transcript4,N
408,transcript40,NNNPENNNNNNNNPEEPPEPNNNNNNEENNNNNNPNEENEENPNNNENNPNENENNNNNPNPNPPNPEP
409,transcript42,PNNNNNNNPPNPPNNEP
410,transcript43,NNNNNNNNNNNNNNNNENNNNNNNPPN
411,transcript44,NNNNNNNNNNNNNNNP
412,transcript45,NNNNNNNP
413,transcript46,NNNPPPNN
414,transcript47,NNNNEEEEENNENNENNNNNNPNNNNNNE
415,transcript48,NNNPNNNNPNNNNNPNNNNPNPNNNNNNNPNENNNPNNNPNPENNNNNNNNPNNNNNNNNNNENNNNNNNNNENNNNNEN
416,transcript49,NNNP
417,transcript5,NNNNNNNNNNNNNNNNPNNPNNNNNNNNNNNNNNNNNNPNNNNENEN
418,transcript50,NNPENEENN
419,transcript51,NNNPPNNNNN
420,transcript52,PNNNNNEE
421,transcript54,NPNNNNNNPPNNPNPENNNPNNPNNNPEEN
422,transcript55,NNNNNNNNNPENNNNNNN
423,transcript56,NNNNNPNNPPENNNNNNNP
424,transcript57,NENNNNNENNENNNNNENNPNNENNNENNNNNNENNNNNNNNNNNNNEENNPNNNNNPNNENENNNNNNNNNNNNNENENNNPENNPNNNNNENNENNNENNENNNENNPNNNNENNNNEENNENNNNNNNNENNEENNNNNNNNNNNNNNNNNNNNNNNPNNNNNNNNNENENNPNNPNNNNNNNNENNNENNNNNNNNNNNNNNNNNNNNNNENNNNNNNNENNNNNENNNEPNPPNPNNNNPNPNNNNNNNNNNNNNNNNNEENNNNENNNNNNNNNNNENNNNNPNNPNNNPE
425,transcript58,NNNNNNNNNNPPNNNNNNNPNNNENNNNNNENNNE
426,transcript59,NNNNNNPNNNNNNNENPNNPNNNENNNENNENEENENENPNNNNEEEEENNEENNEENNNNNNN
427,transcript6,NNNNEEENNNNPNP
428,transcript60,NNNNNNNNNEEEEEEENENNNPNNPNNNNNNPNNNENNNNNPN
429,transcript61,PNN
430,transcript62,N
431,transcript63,NNNNNNNNNNNNENNNNNNNNNNEENPNNP
432,transcript64,NN
433,transcript65,NNNNNPENPN
434,transcript66,NNNNNNNNNPNNNNNNNNNNNNPNNNNNEENNPN
435,transcript67,NNPPENNNN
436,transcript69,PN
437,transcript70,NEEENNNNP
438,transcript71,NNNNEENNNNNNNNNNNNNNENNENNNENNNNNNNEEEENPNNNNNENNNNNEENENNNPNENENNNENNPNENNNENNPNNNNNENNENENNNNNNNEENNENNNENPENNNENNEENNNNENNENNNNENNNNNNPNNNNNNENPNNNNNENNNNNNNNNNNNNNNN
439,transcript72,ENEEEEN
440,transcript73,NNNNNENPNNNNEPNNNNPPNPNNENNNNNNNNNPPNENNPNNNNNNNNPPNNNENNNNNNNENPNNNNENNNNNNNENNENNNNNNNNNN
441,transcript74,PN
442,transcript75,NNNNENNNNNNNNPNENNNNNNNNNNENNNNNNNNNNPNNNNNNNNNNNNNNPNNNNNNNNNNNNNNNENNNNPNNNNNNNNNNNNNNNNNNNNPENNNNNPPPPNENNNNNNNNNNNNNNENNNNENNNNNNNNNNNNNNNNNNNNNNNNNNNNNNNNNNNNPNNNNNNNNNNNNNNNNNNNNNNENNNNNNNNENENNNEENNENNENNNNNENNNNNNNNNNNNNPNNNNNNNNNNNNNNNNNNNNNNNNPENNENNNNNNNNNNNNNNNNEPNPNNNNNNNEENNNNNNNNNNNNNENPNNNNNPENNNNNENNNNNN
443,transcript76,NNN
444,transcript77,NNNNNNNNNENNNNNNNNNPEPNNNNNNENNNNEEENEENNNEEENNEPNNNNENNNNEENNPENNNNNNNNNNNPNNNNENNNNNNNNPE
445,transcript78,NNNNNNNNPPENPNNEN
446,transcript79,NPNNEEEENNNNNP
447,transcript8,NNNNNNNNPPNNPPNNNNNNNE
448,transcript80,NNNNENNNN
449,transcript81,NNEPPEPNEN
450,transcript82,ENNNNNNENNNNNENEEEENNNNNNNNNNEEENNNNENNNN
451,transcript83,NNNNNNNNNNNNNNPNNNNNNNEEPNNNNNPPPPENNEENENNNEEENNNENNEEENENNENNNNNNPENNNEPNNENNNNNNNNNN
452,transcript84,NENNNNPEENNENNNNNNNNNN
453,transcript85,NNNEE
454,transcript86,NNNNENNPE
455,transcript87,NNNNNNNNENNNPNPNNNNNNNNPPNNNNNNPNNNNPNNNNNNNNNPP
456,transcript88,PEENEENPN
457,transcript89,EEEEEEEEEENNNNNNNNNNPNPP
458,transcript9,NNNNPE
459,transcript90,ENE
460,transcript91,NPNNNNNN
461,transcript92,PNENNNNNN
462,transcript93,NNEPNNNNPPNNNPNNNNNNNENNPPPP
463,transcript94,PPNPNNNPNEENNNPNNENNEPNPPENNNNNPPEEEEEPENPNNNNNNEEPPNNNNNPNNPNPPPPEEENENNPPNNENNNNNENNNNNNENEEENNNNPPPNPPP
464,transcript95,NNNNNNENPPEENN
465,transcript96,NPN
466,transcript97,NNNNNEENNNNENPNNNNENNNNNPNNPNNNNNNNNPENNNPPPP
467,transcript98,NNNNNNNNENNNPPNNNENNENNENNNENENNNP
468,transcript99,PENNN
469,trsc1,NPNPEENEPPN
